%YAML 1.1
%TAG !u! tag:unity3d.com,2011:
--- !u!74 &7400000
AnimationClip:
  m_ObjectHideFlags: 0
  m_PrefabParentObject: {fileID: 0}
  m_PrefabInternal: {fileID: 0}
  m_Name: BombBroken
  serializedVersion: 6
  m_Legacy: 0
  m_Compressed: 0
  m_UseHighQualityCurve: 1
  m_RotationCurves: []
  m_CompressedRotationCurves: []
  m_EulerCurves: []
  m_PositionCurves: []
  m_ScaleCurves: []
  m_FloatCurves: []
  m_PPtrCurves:
  - curve:
    - time: 0
      value: {fileID: 21300000, guid: 84f8eda5da15c8847bcba70fe932b08a, type: 3}
    - time: 0.016666668
      value: {fileID: 21300000, guid: 5c049d7fc05c08540a6bc31741e7e979, type: 3}
    - time: 0.033333335
      value: {fileID: 21300000, guid: 7900afd870e61564f97147ba35cb2b2e, type: 3}
    - time: 0.05
      value: {fileID: 21300000, guid: 7fe024623d770e14cbb51d391a4873a1, type: 3}
    - time: 0.06666667
      value: {fileID: 21300000, guid: 7c0acba31f529724697d3037fc42451c, type: 3}
    - time: 0.083333336
      value: {fileID: 21300000, guid: b161b3cf803dd35448efaace736e6b6a, type: 3}
    - time: 0.1
      value: {fileID: 21300000, guid: 19cb0783f34fe2142bb7c8d2063db2d0, type: 3}
    - time: 0.11666667
      value: {fileID: 21300000, guid: 0d3b9a72a103d2a4f90df0feecf5ee87, type: 3}
    - time: 0.13333334
      value: {fileID: 21300000, guid: f8055782ff671e347b7e7301adfa3233, type: 3}
    - time: 0.15
      value: {fileID: 21300000, guid: 11461c83c65fe1344a737664c0b04f78, type: 3}
    - time: 0.16666667
      value: {fileID: 21300000, guid: ac3617f2c63c0554288ceba64d933342, type: 3}
    - time: 0.18333334
      value: {fileID: 21300000, guid: 68ece60921a2ec94aaa039030cd6e5ba, type: 3}
    - time: 0.2
      value: {fileID: 21300000, guid: 669c7e51a32176944b3394f2ccb637c4, type: 3}
    - time: 0.21666667
      value: {fileID: 21300000, guid: 874161b74d93016418b60c3808db0d40, type: 3}
    - time: 0.23333333
      value: {fileID: 21300000, guid: 2d5f5670fdcb03546bcef30876c0cd0e, type: 3}
    - time: 0.25
      value: {fileID: 21300000, guid: 2b8af477c20b48c43aad53c20e357df2, type: 3}
    - time: 0.26666668
      value: {fileID: 21300000, guid: 857f4bd8f935f434da5ebd387254b20d, type: 3}
    - time: 0.28333336
      value: {fileID: 21300000, guid: 354c0b26363a0114e999de9672a5ddf4, type: 3}
    - time: 0.30000004
      value: {fileID: 21300000, guid: 2dd2e3419f9a00548b96475cdd47b7d1, type: 3}
    - time: 0.31666672
      value: {fileID: 21300000, guid: e78c003b1c465d74192f976b8f0e5d27, type: 3}
    - time: 0.3333334
      value: {fileID: 21300000, guid: 1f93cb164aee0ee468c573af577d6b27, type: 3}
    - time: 0.35000008
      value: {fileID: 21300000, guid: 1b2d438f93fa48446bc18a94074b48d4, type: 3}
    - time: 0.36666667
      value: {fileID: 0}
    - time: 1
      value: {fileID: 0}
    attribute: m_Sprite
    path: 
    classID: 212
    script: {fileID: 0}
  m_SampleRate: 60
  m_WrapMode: 0
  m_Bounds:
    m_Center: {x: 0, y: 0, z: 0}
    m_Extent: {x: 0, y: 0, z: 0}
  m_ClipBindingConstant:
    genericBindings:
    - path: 0
      attribute: 0
      script: {fileID: 0}
      classID: 212
      customType: 23
      isPPtrCurve: 1
    pptrCurveMapping:
    - {fileID: 21300000, guid: 84f8eda5da15c8847bcba70fe932b08a, type: 3}
    - {fileID: 21300000, guid: 5c049d7fc05c08540a6bc31741e7e979, type: 3}
    - {fileID: 21300000, guid: 7900afd870e61564f97147ba35cb2b2e, type: 3}
    - {fileID: 21300000, guid: 7fe024623d770e14cbb51d391a4873a1, type: 3}
    - {fileID: 21300000, guid: 7c0acba31f529724697d3037fc42451c, type: 3}
    - {fileID: 21300000, guid: b161b3cf803dd35448efaace736e6b6a, type: 3}
    - {fileID: 21300000, guid: 19cb0783f34fe2142bb7c8d2063db2d0, type: 3}
    - {fileID: 21300000, guid: 0d3b9a72a103d2a4f90df0feecf5ee87, type: 3}
    - {fileID: 21300000, guid: f8055782ff671e347b7e7301adfa3233, type: 3}
    - {fileID: 21300000, guid: 11461c83c65fe1344a737664c0b04f78, type: 3}
    - {fileID: 21300000, guid: ac3617f2c63c0554288ceba64d933342, type: 3}
    - {fileID: 21300000, guid: 68ece60921a2ec94aaa039030cd6e5ba, type: 3}
    - {fileID: 21300000, guid: 669c7e51a32176944b3394f2ccb637c4, type: 3}
    - {fileID: 21300000, guid: 874161b74d93016418b60c3808db0d40, type: 3}
    - {fileID: 21300000, guid: 2d5f5670fdcb03546bcef30876c0cd0e, type: 3}
    - {fileID: 21300000, guid: 2b8af477c20b48c43aad53c20e357df2, type: 3}
    - {fileID: 21300000, guid: 857f4bd8f935f434da5ebd387254b20d, type: 3}
    - {fileID: 21300000, guid: 354c0b26363a0114e999de9672a5ddf4, type: 3}
    - {fileID: 21300000, guid: 2dd2e3419f9a00548b96475cdd47b7d1, type: 3}
    - {fileID: 21300000, guid: e78c003b1c465d74192f976b8f0e5d27, type: 3}
    - {fileID: 21300000, guid: 1f93cb164aee0ee468c573af577d6b27, type: 3}
    - {fileID: 21300000, guid: 1b2d438f93fa48446bc18a94074b48d4, type: 3}
    - {fileID: 0}
    - {fileID: 0}
  m_AnimationClipSettings:
    serializedVersion: 2
    m_AdditiveReferencePoseClip: {fileID: 0}
    m_AdditiveReferencePoseTime: 0
    m_StartTime: 0
    m_StopTime: 1.0166667
    m_OrientationOffsetY: 0
    m_Level: 0
    m_CycleOffset: 0
    m_HasAdditiveReferencePose: 0
    m_LoopTime: 1
    m_LoopBlend: 0
    m_LoopBlendOrientation: 0
    m_LoopBlendPositionY: 0
    m_LoopBlendPositionXZ: 0
    m_KeepOriginalOrientation: 0
    m_KeepOriginalPositionY: 1
    m_KeepOriginalPositionXZ: 0
    m_HeightFromFeet: 0
    m_Mirror: 0
  m_EditorCurves: []
  m_EulerEditorCurves: []
  m_HasGenericRootTransform: 0
  m_HasMotionFloatCurves: 0
  m_GenerateMotionCurves: 0
  m_Events:
  - time: 1
    functionName: disableAnimator
    data: 
    objectReferenceParameter: {fileID: 0}
    floatParameter: 0
    intParameter: 0
    messageOptions: 0
