%YAML 1.1
%TAG !u! tag:unity3d.com,2011:
--- !u!1 &185828
GameObject:
  m_ObjectHideFlags: 0
  m_PrefabParentObject: {fileID: 0}
  m_PrefabInternal: {fileID: 100100000}
  serializedVersion: 4
  m_Component:
  - 4: {fileID: 485828}
  - 114: {fileID: 11485828}
  m_Layer: 0
  m_Name: AudioManager
  m_TagString: Untagged
  m_Icon: {fileID: 0}
  m_NavMeshLayer: 0
  m_StaticEditorFlags: 0
  m_IsActive: 1
--- !u!4 &485828
Transform:
  m_ObjectHideFlags: 1
  m_PrefabParentObject: {fileID: 0}
  m_PrefabInternal: {fileID: 100100000}
  m_GameObject: {fileID: 185828}
  m_LocalRotation: {x: 0, y: 0, z: 0, w: 1}
  m_LocalPosition: {x: 0, y: 0, z: 0}
  m_LocalScale: {x: 1, y: 1, z: 1}
  m_Children: []
  m_Father: {fileID: 0}
  m_RootOrder: 0
--- !u!114 &11485828
MonoBehaviour:
  m_ObjectHideFlags: 1
  m_PrefabParentObject: {fileID: 0}
  m_PrefabInternal: {fileID: 100100000}
  m_GameObject: {fileID: 185828}
  m_Enabled: 1
  m_EditorHideFlags: 0
  m_Script: {fileID: 11500000, guid: 55659eb0b1e084437abbc87e82ab4a87, type: 3}
  m_Name: 
  m_EditorClassIdentifier: 
  menuMusic: {fileID: 8300000, guid: 6b324bceff68fec4f8dc232c522ed00d, type: 3}
  gameMusic: {fileID: 8300000, guid: 7ddb727a3036de941a4b214b546a85f9, type: 3}
  fadeClip: {fileID: 7400000, guid: 3a1e63b0c260c49c59249dff171ee7ac, type: 2}
  sfxButton: {fileID: 8300000, guid: b7c0c31d5fda2a14493e90b1d216de9b, type: 3}
  sfxBomb: {fileID: 8300000, guid: c70032d077721eb478a6ee88e7ae1405, type: 3}
  sfxSwap: {fileID: 8300000, guid: 2146e12db82ff764ca533261992629fc, type: 3}
  sfxTouched: {fileID: 8300000, guid: d3dc06c7c5c161a40a2f2f2bf8c82102, type: 3}
  sfxDrop: {fileID: 8300000, guid: 76d9af349572b4c4d9373ac4c173a6ea, type: 3}
  sfxReadyGo: {fileID: 8300000, guid: 29a0b07695781e04193d4ae460edd784, type: 3}
  sfxThrow: {fileID: 8300000, guid: 7c0fd2a4ebf88e949888069bc6dcf406, type: 3}
  sfxVictory: {fileID: 8300000, guid: 6eb464eda5c96fb46b89ab49a20dc41c, type: 3}
  sfxFailed: {fileID: 8300000, guid: 3915eb66c68de8340bca198201477a39, type: 3}
--- !u!1001 &100100000
Prefab:
  m_ObjectHideFlags: 1
  serializedVersion: 2
  m_Modification:
    m_TransformParent: {fileID: 0}
    m_Modifications: []
    m_RemovedComponents: []
  m_ParentPrefab: {fileID: 0}
  m_RootGameObject: {fileID: 185828}
  m_IsPrefabParent: 1
