%YAML 1.1
%TAG !u! tag:unity3d.com,2011:
--- !u!114 &11400000
MonoBehaviour:
  m_ObjectHideFlags: 0
  m_PrefabParentObject: {fileID: 0}
  m_PrefabInternal: {fileID: 0}
  m_GameObject: {fileID: 0}
  m_Enabled: 1
  m_EditorHideFlags: 0
  m_Script: {fileID: 11500000, guid: 8853418c6aa70ad4a81815f46eeb7903, type: 3}
  m_Name: GameScriptable
  m_EditorClassIdentifier: 
  gameLink: https://itunes.apple.com/app/id1133056005?mt=8
  count: 20
  InaappPurchaseCoins:
  - inappId: com.monkeyunity.200coins
    coinsValue: 200
    dollers: .99
  - inappId: com.monkeyunity.500coins
    coinsValue: 500
    dollers: 1.99
  - inappId: com.monkeyunity.1000coins
    coinsValue: 1000
    dollers: 2.99
  - inappId: com.monkeyunity.1500coins
    coinsValue: 1500
    dollers: 3.99
  - inappId: com.monkeyunity.2000coins
    coinsValue: 2000
    dollers: 4.99
  - inappId: com.monkeyunity.2600coins
    coinsValue: 2600
    dollers: 5.99
  - inappId: com.monkeyunity.3500coins
    coinsValue: 3500
    dollers: 6.99
  hasOffer: 1
  delay:
    days: 1
    hours: 1
    minutes: 30
    seconds: 30
  inappPurchaseCoinsForOffer:
  - inappId: com.monkeyunity.200coinsbundle
    coinsValue: 200
    dollers: 0.99
    multiPlexer: 2
  - inappId: com.monkeyunity.450coinsbundle
    coinsValue: 450
    dollers: 1.99
    multiPlexer: 2
  - inappId: com.monkeyunity.800coinsbundle
    coinsValue: 800
    dollers: 2.99
    multiPlexer: 2
  - inappId: com.monkeyunity.1500coinsbundle
    coinsValue: 1500
    dollers: 4.99
    multiPlexer: 2
