%YAML 1.1
%TAG !u! tag:unity3d.com,2011:
--- !u!74 &7400000
AnimationClip:
  m_ObjectHideFlags: 0
  m_PrefabParentObject: {fileID: 0}
  m_PrefabInternal: {fileID: 0}
  m_Name: Broken
  serializedVersion: 6
  m_Legacy: 0
  m_Compressed: 0
  m_UseHighQualityCurve: 1
  m_RotationCurves: []
  m_CompressedRotationCurves: []
  m_EulerCurves: []
  m_PositionCurves: []
  m_ScaleCurves: []
  m_FloatCurves:
  - curve:
      serializedVersion: 2
      m_Curve:
      - time: 0
        value: 0
        inSlope: Infinity
        outSlope: Infinity
        tangentMode: 31
      - time: 0.75
        value: 0
        inSlope: Infinity
        outSlope: Infinity
        tangentMode: 31
      - time: 1.125
        value: 0
        inSlope: Infinity
        outSlope: Infinity
        tangentMode: 31
      m_PreInfinity: 2
      m_PostInfinity: 2
      m_RotationOrder: 4
    attribute: m_IsActive
    path: SquirrelInside
    classID: 1
    script: {fileID: 0}
  m_PPtrCurves:
  - curve:
    - time: 0
      value: {fileID: 21300000, guid: 12de0e9b1b3de174983d198be10199f2, type: 3}
    - time: 0.0625
      value: {fileID: 21300000, guid: 5fed8a993e83cce4fba6f7d035fb8687, type: 3}
    - time: 0.125
      value: {fileID: 21300000, guid: 9cd6445c3077024469274d174875970c, type: 3}
    - time: 0.1875
      value: {fileID: 21300000, guid: 8c5b634445355eb42be040962f348edb, type: 3}
    - time: 0.25
      value: {fileID: 21300000, guid: a22a00d20768ded4a954138c77ee6452, type: 3}
    - time: 0.3125
      value: {fileID: 21300000, guid: 013ee7ff0d633614b8bea4f317210e2a, type: 3}
    - time: 0.375
      value: {fileID: 21300000, guid: 9280cd6a8ca7f1a48be5d6d62dfd26bd, type: 3}
    - time: 0.4375
      value: {fileID: 21300000, guid: d5b0d4b827e809b4bb44d5796deba38f, type: 3}
    - time: 0.5
      value: {fileID: 21300000, guid: ed3dc83cc1039f04ba51ed1d4d35d24b, type: 3}
    - time: 0.5625
      value: {fileID: 21300000, guid: 6a07cb5f0661bdf429f1fa2fc4a09422, type: 3}
    - time: 0.625
      value: {fileID: 21300000, guid: 54c61877b7d02f84a970ef86aad16814, type: 3}
    - time: 0.6875
      value: {fileID: 21300000, guid: fc442dc83bac4c045992481cb96fde9c, type: 3}
    - time: 0.75
      value: {fileID: 0}
    - time: 1.125
      value: {fileID: 0}
    attribute: m_Sprite
    path: 
    classID: 212
    script: {fileID: 0}
  m_SampleRate: 16
  m_WrapMode: 1
  m_Bounds:
    m_Center: {x: 0, y: 0, z: 0}
    m_Extent: {x: 0, y: 0, z: 0}
  m_ClipBindingConstant:
    genericBindings:
    - path: 2393312320
      attribute: 2086281974
      script: {fileID: 0}
      classID: 1
      customType: 0
      isPPtrCurve: 0
    - path: 0
      attribute: 0
      script: {fileID: 0}
      classID: 212
      customType: 23
      isPPtrCurve: 1
    pptrCurveMapping:
    - {fileID: 21300000, guid: 12de0e9b1b3de174983d198be10199f2, type: 3}
    - {fileID: 21300000, guid: 5fed8a993e83cce4fba6f7d035fb8687, type: 3}
    - {fileID: 21300000, guid: 9cd6445c3077024469274d174875970c, type: 3}
    - {fileID: 21300000, guid: 8c5b634445355eb42be040962f348edb, type: 3}
    - {fileID: 21300000, guid: a22a00d20768ded4a954138c77ee6452, type: 3}
    - {fileID: 21300000, guid: 013ee7ff0d633614b8bea4f317210e2a, type: 3}
    - {fileID: 21300000, guid: 9280cd6a8ca7f1a48be5d6d62dfd26bd, type: 3}
    - {fileID: 21300000, guid: d5b0d4b827e809b4bb44d5796deba38f, type: 3}
    - {fileID: 21300000, guid: ed3dc83cc1039f04ba51ed1d4d35d24b, type: 3}
    - {fileID: 21300000, guid: 6a07cb5f0661bdf429f1fa2fc4a09422, type: 3}
    - {fileID: 21300000, guid: 54c61877b7d02f84a970ef86aad16814, type: 3}
    - {fileID: 21300000, guid: fc442dc83bac4c045992481cb96fde9c, type: 3}
    - {fileID: 0}
    - {fileID: 0}
  m_AnimationClipSettings:
    serializedVersion: 2
    m_AdditiveReferencePoseClip: {fileID: 0}
    m_AdditiveReferencePoseTime: 0
    m_StartTime: 0
    m_StopTime: 1.1875
    m_OrientationOffsetY: 0
    m_Level: 0
    m_CycleOffset: 0
    m_HasAdditiveReferencePose: 0
    m_LoopTime: 1
    m_LoopBlend: 0
    m_LoopBlendOrientation: 0
    m_LoopBlendPositionY: 0
    m_LoopBlendPositionXZ: 0
    m_KeepOriginalOrientation: 0
    m_KeepOriginalPositionY: 1
    m_KeepOriginalPositionXZ: 0
    m_HeightFromFeet: 0
    m_Mirror: 0
  m_EditorCurves:
  - curve:
      serializedVersion: 2
      m_Curve:
      - time: 0
        value: 0
        inSlope: Infinity
        outSlope: Infinity
        tangentMode: 31
      - time: 0.75
        value: 0
        inSlope: Infinity
        outSlope: Infinity
        tangentMode: 31
      - time: 1.125
        value: 0
        inSlope: Infinity
        outSlope: Infinity
        tangentMode: 31
      m_PreInfinity: 2
      m_PostInfinity: 2
      m_RotationOrder: 4
    attribute: m_IsActive
    path: SquirrelInside
    classID: 1
    script: {fileID: 0}
  m_EulerEditorCurves: []
  m_HasGenericRootTransform: 0
  m_HasMotionFloatCurves: 0
  m_GenerateMotionCurves: 0
  m_Events:
  - time: 1.125
    functionName: disableAnimator
    data: 
    objectReferenceParameter: {fileID: 0}
    floatParameter: 0
    intParameter: 0
    messageOptions: 0
