%YAML 1.1
%TAG !u! tag:unity3d.com,2011:
--- !u!74 &7400000
AnimationClip:
  m_ObjectHideFlags: 0
  m_PrefabParentObject: {fileID: 0}
  m_PrefabInternal: {fileID: 0}
  m_Name: DoNothingWOTurnoff
  serializedVersion: 6
  m_Legacy: 0
  m_Compressed: 0
  m_UseHighQualityCurve: 1
  m_RotationCurves: []
  m_CompressedRotationCurves: []
  m_EulerCurves: []
  m_PositionCurves: []
  m_ScaleCurves: []
  m_FloatCurves: []
  m_PPtrCurves:
  - curve:
    - time: -0.083333336
      value: {fileID: 21300000, guid: 9d10b82a66b173a45b2c63bff3662089, type: 3}
    - time: 0
      value: {fileID: 21300000, guid: bcc2afb50136f3b479b56da033a003ca, type: 3}
    - time: 0.083333336
      value: {fileID: 21300000, guid: 576262df138d0c442b8565b264d001c1, type: 3}
    - time: 0.16666667
      value: {fileID: 21300000, guid: 287a23bd47add4340b34b9d2558182ea, type: 3}
    - time: 0.25
      value: {fileID: 21300000, guid: c87605d07bcafd74baab9ab3a15bcda2, type: 3}
    - time: 0.33333334
      value: {fileID: 21300000, guid: 62a284ff52858c749a5ad61986e1a068, type: 3}
    - time: 0.41666666
      value: {fileID: 21300000, guid: c8a4a98e6c454b048889430c4b2db1b3, type: 3}
    - time: 0.5
      value: {fileID: 21300000, guid: 552e48659f488bb41bf115e7bcb08598, type: 3}
    - time: 0.5833333
      value: {fileID: 21300000, guid: 41b8cf7203932344e88f14c495775028, type: 3}
    - time: 0.6666667
      value: {fileID: 21300000, guid: 58cff982187cdf9438dbb23fad84871e, type: 3}
    - time: 0.75
      value: {fileID: 21300000, guid: 4411f365662ec3040a62207ec1143076, type: 3}
    - time: 0.8333333
      value: {fileID: 21300000, guid: 357a307fdb266b546b0442d7096dd8ea, type: 3}
    - time: 0.9166667
      value: {fileID: 21300000, guid: 813a1a460fd0b1749bd9977b8274e21d, type: 3}
    - time: 1
      value: {fileID: 21300000, guid: a7707d12d90ae7a43ad1fd230b0fe0f9, type: 3}
    - time: 1.0833334
      value: {fileID: 21300000, guid: 499928d28ebec6648999f8c0d8da9a87, type: 3}
    attribute: m_Sprite
    path: Body
    classID: 212
    script: {fileID: 0}
  m_SampleRate: 12
  m_WrapMode: 0
  m_Bounds:
    m_Center: {x: 0, y: 0, z: 0}
    m_Extent: {x: 0, y: 0, z: 0}
  m_ClipBindingConstant:
    genericBindings:
    - path: 2073732236
      attribute: 0
      script: {fileID: 0}
      classID: 212
      customType: 23
      isPPtrCurve: 1
    pptrCurveMapping:
    - {fileID: 21300000, guid: 9d10b82a66b173a45b2c63bff3662089, type: 3}
    - {fileID: 21300000, guid: bcc2afb50136f3b479b56da033a003ca, type: 3}
    - {fileID: 21300000, guid: 576262df138d0c442b8565b264d001c1, type: 3}
    - {fileID: 21300000, guid: 287a23bd47add4340b34b9d2558182ea, type: 3}
    - {fileID: 21300000, guid: c87605d07bcafd74baab9ab3a15bcda2, type: 3}
    - {fileID: 21300000, guid: 62a284ff52858c749a5ad61986e1a068, type: 3}
    - {fileID: 21300000, guid: c8a4a98e6c454b048889430c4b2db1b3, type: 3}
    - {fileID: 21300000, guid: 552e48659f488bb41bf115e7bcb08598, type: 3}
    - {fileID: 21300000, guid: 41b8cf7203932344e88f14c495775028, type: 3}
    - {fileID: 21300000, guid: 58cff982187cdf9438dbb23fad84871e, type: 3}
    - {fileID: 21300000, guid: 4411f365662ec3040a62207ec1143076, type: 3}
    - {fileID: 21300000, guid: 357a307fdb266b546b0442d7096dd8ea, type: 3}
    - {fileID: 21300000, guid: 813a1a460fd0b1749bd9977b8274e21d, type: 3}
    - {fileID: 21300000, guid: a7707d12d90ae7a43ad1fd230b0fe0f9, type: 3}
    - {fileID: 21300000, guid: 499928d28ebec6648999f8c0d8da9a87, type: 3}
  m_AnimationClipSettings:
    serializedVersion: 2
    m_AdditiveReferencePoseClip: {fileID: 0}
    m_AdditiveReferencePoseTime: 0
    m_StartTime: 0
    m_StopTime: 1.1666667
    m_OrientationOffsetY: 0
    m_Level: 0
    m_CycleOffset: 0
    m_HasAdditiveReferencePose: 0
    m_LoopTime: 1
    m_LoopBlend: 0
    m_LoopBlendOrientation: 0
    m_LoopBlendPositionY: 0
    m_LoopBlendPositionXZ: 0
    m_KeepOriginalOrientation: 0
    m_KeepOriginalPositionY: 1
    m_KeepOriginalPositionXZ: 0
    m_HeightFromFeet: 0
    m_Mirror: 0
  m_EditorCurves: []
  m_EulerEditorCurves: []
  m_HasGenericRootTransform: 0
  m_HasMotionFloatCurves: 0
  m_GenerateMotionCurves: 0
  m_Events: []
