%YAML 1.1
%TAG !u! tag:unity3d.com,2011:
--- !u!74 &7400000
AnimationClip:
  m_ObjectHideFlags: 0
  m_PrefabParentObject: {fileID: 0}
  m_PrefabInternal: {fileID: 0}
  m_Name: ReadyGoAppear
  serializedVersion: 6
  m_Legacy: 1
  m_Compressed: 0
  m_UseHighQualityCurve: 1
  m_RotationCurves: []
  m_CompressedRotationCurves: []
  m_EulerCurves: []
  m_PositionCurves:
  - curve:
      serializedVersion: 2
      m_Curve:
      - time: 0
        value: {x: 7.83, y: 0, z: -6.3}
        inSlope: {x: -36.12, y: -0, z: 0}
        outSlope: {x: -36.12, y: -0, z: 0}
        tangentMode: 0
      - time: 0.16666667
        value: {x: 1.81, y: -0, z: -6.3}
        inSlope: {x: 0, y: 0, z: 0}
        outSlope: {x: 0, y: 0, z: 0}
        tangentMode: 1
      - time: 0.5833333
        value: {x: 1.81, y: 0, z: -6.3}
        inSlope: {x: 0, y: 0, z: 0}
        outSlope: {x: 0, y: 0, z: 0}
        tangentMode: 0
      - time: 0.6666667
        value: {x: -4.31, y: -0, z: -6.3}
        inSlope: {x: 0, y: 0, z: 0}
        outSlope: {x: 0, y: 0, z: 0}
        tangentMode: 57
      - time: 1.0833334
        value: {x: -4.31, y: 0, z: -6.3}
        inSlope: {x: 0, y: 0, z: 0}
        outSlope: {x: 0, y: 0, z: 0}
        tangentMode: 0
      - time: 1.1666666
        value: {x: -9.55, y: -0, z: -6.3}
        inSlope: {x: -62.880062, y: -0, z: 0}
        outSlope: {x: -62.880062, y: -0, z: 0}
        tangentMode: 105886128
      m_PreInfinity: 2
      m_PostInfinity: 2
      m_RotationOrder: 4
    path: 
  m_ScaleCurves: []
  m_FloatCurves: []
  m_PPtrCurves: []
  m_SampleRate: 60
  m_WrapMode: 0
  m_Bounds:
    m_Center: {x: 0, y: 0, z: 0}
    m_Extent: {x: 0, y: 0, z: 0}
  m_ClipBindingConstant:
    genericBindings: []
    pptrCurveMapping: []
  m_AnimationClipSettings:
    serializedVersion: 2
    m_AdditiveReferencePoseClip: {fileID: 0}
    m_AdditiveReferencePoseTime: 0
    m_StartTime: 0
    m_StopTime: 1.4666667
    m_OrientationOffsetY: 0
    m_Level: 0
    m_CycleOffset: 0
    m_HasAdditiveReferencePose: 0
    m_LoopTime: 0
    m_LoopBlend: 0
    m_LoopBlendOrientation: 0
    m_LoopBlendPositionY: 0
    m_LoopBlendPositionXZ: 0
    m_KeepOriginalOrientation: 0
    m_KeepOriginalPositionY: 1
    m_KeepOriginalPositionXZ: 0
    m_HeightFromFeet: 0
    m_Mirror: 0
  m_EditorCurves:
  - curve:
      serializedVersion: 2
      m_Curve:
      - time: 0
        value: 7.83
        inSlope: -36.12
        outSlope: -36.12
        tangentMode: 1
      - time: 0.16666667
        value: 1.81
        inSlope: 0
        outSlope: 0
        tangentMode: 0
      - time: 0.5833333
        value: 1.81
        inSlope: 0
        outSlope: 0
        tangentMode: 0
      - time: 0.6666667
        value: -4.31
        inSlope: 0
        outSlope: 0
        tangentMode: 0
      - time: 1.0833334
        value: -4.31
        inSlope: 0
        outSlope: 0
        tangentMode: 0
      - time: 1.1666666
        value: -9.55
        inSlope: -62.880062
        outSlope: -62.880062
        tangentMode: 10
      m_PreInfinity: 2
      m_PostInfinity: 2
      m_RotationOrder: 4
    attribute: m_LocalPosition.x
    path: 
    classID: 4
    script: {fileID: 0}
  - curve:
      serializedVersion: 2
      m_Curve:
      - time: 0
        value: 0
        inSlope: -0
        outSlope: -0
        tangentMode: 1
      - time: 0.16666667
        value: -0
        inSlope: 0
        outSlope: 0
        tangentMode: 0
      - time: 0.5833333
        value: 0
        inSlope: 0
        outSlope: 0
        tangentMode: 10
      - time: 0.6666667
        value: -0
        inSlope: 0
        outSlope: 0
        tangentMode: 10
      - time: 1.0833334
        value: 0
        inSlope: 0
        outSlope: 0
        tangentMode: 10
      - time: 1.1666666
        value: -0
        inSlope: -0
        outSlope: -0
        tangentMode: 10
      m_PreInfinity: 2
      m_PostInfinity: 2
      m_RotationOrder: 4
    attribute: m_LocalPosition.y
    path: 
    classID: 4
    script: {fileID: 0}
  - curve:
      serializedVersion: 2
      m_Curve:
      - time: 0
        value: -6.3
        inSlope: 0
        outSlope: 0
        tangentMode: 1
      - time: 0.16666667
        value: -6.3
        inSlope: 0
        outSlope: 0
        tangentMode: 0
      - time: 0.5833333
        value: -6.3
        inSlope: 0
        outSlope: 0
        tangentMode: 10
      - time: 0.6666667
        value: -6.3
        inSlope: 0
        outSlope: 0
        tangentMode: 10
      - time: 1.0833334
        value: -6.3
        inSlope: 0
        outSlope: 0
        tangentMode: 10
      - time: 1.1666666
        value: -6.3
        inSlope: 0
        outSlope: 0
        tangentMode: 10
      m_PreInfinity: 2
      m_PostInfinity: 2
      m_RotationOrder: 4
    attribute: m_LocalPosition.z
    path: 
    classID: 4
    script: {fileID: 0}
  m_EulerEditorCurves: []
  m_HasGenericRootTransform: 0
  m_HasMotionFloatCurves: 0
  m_GenerateMotionCurves: 0
  m_Events:
  - time: 1.4666667
    functionName: Suicide
    data: 
    objectReferenceParameter: {fileID: 0}
    floatParameter: 0
    intParameter: 0
    messageOptions: 0
