%YAML 1.1
%TAG !u! tag:unity3d.com,2011:
--- !u!1045 &1
EditorBuildSettings:
  m_ObjectHideFlags: 0
  serializedVersion: 2
  m_Scenes:
  - enabled: 1
    path: Assets/Bubble Shooter Pet Match 3 Completed/Scenes/HomeScene.unity
  - enabled: 1
    path: Assets/Bubble Shooter Pet Match 3 Completed/Scenes/GameScene.unity
  - enabled: 1
    path: Assets/Bubble Shooter Pet Match 3 Completed/Scenes/LevelSelect.unity
