%YAML 1.1
%TAG !u! tag:unity3d.com,2011:
--- !u!74 &7400000
AnimationClip:
  m_ObjectHideFlags: 0
  m_PrefabParentObject: {fileID: 0}
  m_PrefabInternal: {fileID: 0}
  m_Name: MonkeyTrow
  serializedVersion: 6
  m_Legacy: 0
  m_Compressed: 0
  m_UseHighQualityCurve: 1
  m_RotationCurves: []
  m_CompressedRotationCurves: []
  m_EulerCurves: []
  m_PositionCurves: []
  m_ScaleCurves: []
  m_FloatCurves: []
  m_PPtrCurves:
  - curve:
    - time: 0
      value: {fileID: 21300000, guid: 0e132bf066973b9489c2483c72434ac8, type: 3}
    - time: 0.083333336
      value: {fileID: 21300000, guid: a704ea2122a23c8409aa49bbb26b8db8, type: 3}
    - time: 0.16666667
      value: {fileID: 21300000, guid: 4fd9c261f2f735b4e80dd1a83dcf731c, type: 3}
    - time: 0.25
      value: {fileID: 21300000, guid: 64f22df1cde80d04182813c8fe3f0278, type: 3}
    - time: 0.33333334
      value: {fileID: 21300000, guid: ec936002a2b7bf64b89b4c9567b5d2be, type: 3}
    - time: 0.41666666
      value: {fileID: 21300000, guid: 796d551372895644783cbbc52e861f0e, type: 3}
    - time: 0.5
      value: {fileID: 21300000, guid: a11b4fc359b369549887f97330afc3a1, type: 3}
    - time: 0.5833333
      value: {fileID: 21300000, guid: 49f72f15896b96d4694a7568d6ac6b59, type: 3}
    - time: 0.6666667
      value: {fileID: 21300000, guid: 131125252e87d94488b5e11bf47d21e8, type: 3}
    - time: 0.75
      value: {fileID: 21300000, guid: 6f23f8967cf33de4ea012f3bc65aefe0, type: 3}
    - time: 0.8333333
      value: {fileID: 21300000, guid: 572fbc48e27337845a4b576bb4145441, type: 3}
    - time: 0.9166667
      value: {fileID: 21300000, guid: 9b247a491e6ff204aacb5a59b0bf5756, type: 3}
    - time: 1
      value: {fileID: 21300000, guid: cbb2196990324f34285638ca1660355d, type: 3}
    - time: 1.0833334
      value: {fileID: 21300000, guid: d43524dbb55006d4a98b417a23b799ef, type: 3}
    - time: 1.1666666
      value: {fileID: 21300000, guid: 56eb640df387cdf40be16e87344a144e, type: 3}
    - time: 1.25
      value: {fileID: 21300000, guid: 7f76122ef464a434289ee6061c48513e, type: 3}
    - time: 1.3333334
      value: {fileID: 21300000, guid: dabe5caff7c20fe47aa39af6913c97d8, type: 3}
    - time: 1.4166666
      value: {fileID: 21300000, guid: 31ce2612780944743b509f191e11fa42, type: 3}
    - time: 1.5
      value: {fileID: 21300000, guid: f5af6e25225199948bff9b60660b687e, type: 3}
    - time: 1.5833334
      value: {fileID: 21300000, guid: f83a70551137ce445abab77049973584, type: 3}
    - time: 1.6666666
      value: {fileID: 21300000, guid: 9e94a8d5ce5d2af4385cbb75c5ab85f2, type: 3}
    - time: 1.75
      value: {fileID: 21300000, guid: 22d51826120928a4fb8dcca89e359c1f, type: 3}
    - time: 1.8333334
      value: {fileID: 21300000, guid: f927c6b7bcb2ef34badfc7b42f95d8a2, type: 3}
    - time: 1.9166666
      value: {fileID: 21300000, guid: c7a059e754e2e4945a42c7b452864f83, type: 3}
    - time: 2
      value: {fileID: 21300000, guid: 09fc09c84bddce043918a6cb8e4b211f, type: 3}
    - time: 2.0833333
      value: {fileID: 21300000, guid: e25cfc69f493400458681982c0502ccc, type: 3}
    - time: 2.1666667
      value: {fileID: 21300000, guid: e6d2ec8a39711424cbdb84d55cac90fa, type: 3}
    - time: 2.25
      value: {fileID: 21300000, guid: a50f99aa163530c418bc5b2a464d8cc2, type: 3}
    - time: 2.3333333
      value: {fileID: 21300000, guid: 5d08a33b2d89f554b85e59da2d3753a7, type: 3}
    - time: 2.4166667
      value: {fileID: 21300000, guid: 8a50652e016a6c441938879c3e184dc8, type: 3}
    - time: 2.5
      value: {fileID: 21300000, guid: c194e8ff7a54cb44eb4fe0e8711008ac, type: 3}
    attribute: m_Sprite
    path: 
    classID: 212
    script: {fileID: 0}
  m_SampleRate: 12
  m_WrapMode: 0
  m_Bounds:
    m_Center: {x: 0, y: 0, z: 0}
    m_Extent: {x: 0, y: 0, z: 0}
  m_ClipBindingConstant:
    genericBindings:
    - path: 0
      attribute: 0
      script: {fileID: 0}
      classID: 212
      customType: 23
      isPPtrCurve: 1
    pptrCurveMapping:
    - {fileID: 21300000, guid: 0e132bf066973b9489c2483c72434ac8, type: 3}
    - {fileID: 21300000, guid: a704ea2122a23c8409aa49bbb26b8db8, type: 3}
    - {fileID: 21300000, guid: 4fd9c261f2f735b4e80dd1a83dcf731c, type: 3}
    - {fileID: 21300000, guid: 64f22df1cde80d04182813c8fe3f0278, type: 3}
    - {fileID: 21300000, guid: ec936002a2b7bf64b89b4c9567b5d2be, type: 3}
    - {fileID: 21300000, guid: 796d551372895644783cbbc52e861f0e, type: 3}
    - {fileID: 21300000, guid: a11b4fc359b369549887f97330afc3a1, type: 3}
    - {fileID: 21300000, guid: 49f72f15896b96d4694a7568d6ac6b59, type: 3}
    - {fileID: 21300000, guid: 131125252e87d94488b5e11bf47d21e8, type: 3}
    - {fileID: 21300000, guid: 6f23f8967cf33de4ea012f3bc65aefe0, type: 3}
    - {fileID: 21300000, guid: 572fbc48e27337845a4b576bb4145441, type: 3}
    - {fileID: 21300000, guid: 9b247a491e6ff204aacb5a59b0bf5756, type: 3}
    - {fileID: 21300000, guid: cbb2196990324f34285638ca1660355d, type: 3}
    - {fileID: 21300000, guid: d43524dbb55006d4a98b417a23b799ef, type: 3}
    - {fileID: 21300000, guid: 56eb640df387cdf40be16e87344a144e, type: 3}
    - {fileID: 21300000, guid: 7f76122ef464a434289ee6061c48513e, type: 3}
    - {fileID: 21300000, guid: dabe5caff7c20fe47aa39af6913c97d8, type: 3}
    - {fileID: 21300000, guid: 31ce2612780944743b509f191e11fa42, type: 3}
    - {fileID: 21300000, guid: f5af6e25225199948bff9b60660b687e, type: 3}
    - {fileID: 21300000, guid: f83a70551137ce445abab77049973584, type: 3}
    - {fileID: 21300000, guid: 9e94a8d5ce5d2af4385cbb75c5ab85f2, type: 3}
    - {fileID: 21300000, guid: 22d51826120928a4fb8dcca89e359c1f, type: 3}
    - {fileID: 21300000, guid: f927c6b7bcb2ef34badfc7b42f95d8a2, type: 3}
    - {fileID: 21300000, guid: c7a059e754e2e4945a42c7b452864f83, type: 3}
    - {fileID: 21300000, guid: 09fc09c84bddce043918a6cb8e4b211f, type: 3}
    - {fileID: 21300000, guid: e25cfc69f493400458681982c0502ccc, type: 3}
    - {fileID: 21300000, guid: e6d2ec8a39711424cbdb84d55cac90fa, type: 3}
    - {fileID: 21300000, guid: a50f99aa163530c418bc5b2a464d8cc2, type: 3}
    - {fileID: 21300000, guid: 5d08a33b2d89f554b85e59da2d3753a7, type: 3}
    - {fileID: 21300000, guid: 8a50652e016a6c441938879c3e184dc8, type: 3}
    - {fileID: 21300000, guid: c194e8ff7a54cb44eb4fe0e8711008ac, type: 3}
  m_AnimationClipSettings:
    serializedVersion: 2
    m_AdditiveReferencePoseClip: {fileID: 0}
    m_AdditiveReferencePoseTime: 0
    m_StartTime: 0
    m_StopTime: 2.5833333
    m_OrientationOffsetY: 0
    m_Level: 0
    m_CycleOffset: 0
    m_HasAdditiveReferencePose: 0
    m_LoopTime: 0
    m_LoopBlend: 0
    m_LoopBlendOrientation: 0
    m_LoopBlendPositionY: 0
    m_LoopBlendPositionXZ: 0
    m_KeepOriginalOrientation: 0
    m_KeepOriginalPositionY: 1
    m_KeepOriginalPositionXZ: 0
    m_HeightFromFeet: 0
    m_Mirror: 0
  m_EditorCurves: []
  m_EulerEditorCurves: []
  m_HasGenericRootTransform: 0
  m_HasMotionFloatCurves: 0
  m_GenerateMotionCurves: 0
  m_Events: []
