%YAML 1.1
%TAG !u! tag:unity3d.com,2011:
--- !u!128 &12800000
Font:
  m_ObjectHideFlags: 0
  m_PrefabParentObject: {fileID: 0}
  m_PrefabInternal: {fileID: 0}
  m_Name: BirdCounterFont
  serializedVersion: 4
  m_AsciiStartOffset: 0
  m_Tracking: 1
  m_LineSpacing: 0.1
  m_CharacterSpacing: 1
  m_CharacterPadding: 0
  m_ConvertCase: 0
  m_DefaultMaterial: {fileID: 2100000, guid: 2c7d99c82fabf8d478ceffd1600fb899, type: 2}
  m_CharacterRects:
  - serializedVersion: 2
    index: 48
    uv:
      serializedVersion: 2
      x: 0
      y: 0.03448276
      width: 0.06666667
      height: 0.9655172
    vert:
      serializedVersion: 2
      x: 0
      y: 0
      width: 19
      height: -28
    advance: 19
    flipped: 0
  - serializedVersion: 2
    index: 49
    uv:
      serializedVersion: 2
      x: 0.10175438
      y: 0.06896552
      width: 0.045614034
      height: 0.9310345
    vert:
      serializedVersion: 2
      x: 0
      y: 0
      width: 13
      height: -27
    advance: 13
    flipped: 0
  - serializedVersion: 2
    index: 50
    uv:
      serializedVersion: 2
      x: 0.18947369
      y: 0.06896552
      width: 0.06666667
      height: 0.9310345
    vert:
      serializedVersion: 2
      x: 0
      y: 0
      width: 19
      height: -27
    advance: 19
    flipped: 0
  - serializedVersion: 2
    index: 51
    uv:
      serializedVersion: 2
      x: 0.28421053
      y: 0.03448276
      width: 0.06666667
      height: 0.9655172
    vert:
      serializedVersion: 2
      x: 0
      y: 0
      width: 19
      height: -28
    advance: 19
    flipped: 0
  - serializedVersion: 2
    index: 52
    uv:
      serializedVersion: 2
      x: 0.37894738
      y: 0.06896552
      width: 0.07017544
      height: 0.9310345
    vert:
      serializedVersion: 2
      x: 0
      y: 0
      width: 20
      height: -27
    advance: 20
    flipped: 0
  - serializedVersion: 2
    index: 53
    uv:
      serializedVersion: 2
      x: 0.47368422
      y: 0.03448276
      width: 0.06666667
      height: 0.9655172
    vert:
      serializedVersion: 2
      x: 0
      y: 0
      width: 19
      height: -28
    advance: 19
    flipped: 0
  - serializedVersion: 2
    index: 54
    uv:
      serializedVersion: 2
      x: 0.5719298
      y: 0.03448276
      width: 0.06666667
      height: 0.9655172
    vert:
      serializedVersion: 2
      x: 0
      y: 0
      width: 19
      height: -28
    advance: 19
    flipped: 0
  - serializedVersion: 2
    index: 55
    uv:
      serializedVersion: 2
      x: 0.6666667
      y: 0.06896552
      width: 0.07017544
      height: 0.9310345
    vert:
      serializedVersion: 2
      x: 0
      y: 0
      width: 20
      height: -27
    advance: 20
    flipped: 0
  - serializedVersion: 2
    index: 56
    uv:
      serializedVersion: 2
      x: 0.7614035
      y: 0.03448276
      width: 0.06666667
      height: 0.9655172
    vert:
      serializedVersion: 2
      x: 0
      y: 0
      width: 19
      height: -28
    advance: 19
    flipped: 0
  - serializedVersion: 2
    index: 57
    uv:
      serializedVersion: 2
      x: 0.8561404
      y: 0.06896552
      width: 0.07017544
      height: 0.9310345
    vert:
      serializedVersion: 2
      x: 0
      y: 0
      width: 20
      height: -27
    advance: 20
    flipped: 0
  - serializedVersion: 2
    index: 47
    uv:
      serializedVersion: 2
      x: 0.94736844
      y: 0
      width: 0.05263158
      height: 1
    vert:
      serializedVersion: 2
      x: 0
      y: 1.5000037
      width: 15
      height: -29
    advance: 15
    flipped: 0
  m_Texture: {fileID: 0}
  m_KerningValues: []
  m_PixelScale: 0.1
  m_FontData: 
  m_FontSize: 0
  m_Ascent: 0
  m_DefaultStyle: 0
  m_FontNames: []
  m_FallbackFonts: []
  m_FontRenderingMode: 0
