%YAML 1.1
%TAG !u! tag:unity3d.com,2011:
--- !u!128 &12800000
Font:
  m_ObjectHideFlags: 0
  m_PrefabParentObject: {fileID: 0}
  m_PrefabInternal: {fileID: 0}
  m_Name: PopupNumber2
  serializedVersion: 4
  m_AsciiStartOffset: 0
  m_Tracking: 1
  m_LineSpacing: 0.1
  m_CharacterSpacing: 1
  m_CharacterPadding: 0
  m_ConvertCase: 0
  m_DefaultMaterial: {fileID: 2100000, guid: 4dc2a4a5178b29241b0b1450a47f0648, type: 2}
  m_CharacterRects:
  - serializedVersion: 2
    index: 48
    uv:
      serializedVersion: 2
      x: 0
      y: 0
      width: 0.07514451
      height: 1
    vert:
      serializedVersion: 2
      x: 0
      y: 0
      width: 13
      height: -17
    advance: 13
    flipped: 0
  - serializedVersion: 2
    index: 49
    uv:
      serializedVersion: 2
      x: 0.10404624
      y: 0
      width: 0.057803467
      height: 1
    vert:
      serializedVersion: 2
      x: 0
      y: 0
      width: 10
      height: -17
    advance: 10
    flipped: 0
  - serializedVersion: 2
    index: 50
    uv:
      serializedVersion: 2
      x: 0.20231214
      y: 0
      width: 0.07514451
      height: 1
    vert:
      serializedVersion: 2
      x: 0
      y: 0
      width: 13
      height: -17
    advance: 13
    flipped: 0
  - serializedVersion: 2
    index: 51
    uv:
      serializedVersion: 2
      x: 0.30635837
      y: 0
      width: 0.07514451
      height: 1
    vert:
      serializedVersion: 2
      x: 0
      y: 0
      width: 13
      height: -17
    advance: 13
    flipped: 0
  - serializedVersion: 2
    index: 52
    uv:
      serializedVersion: 2
      x: 0.41040462
      y: 0
      width: 0.07514451
      height: 1
    vert:
      serializedVersion: 2
      x: 0
      y: 0
      width: 13
      height: -17
    advance: 13
    flipped: 0
  - serializedVersion: 2
    index: 53
    uv:
      serializedVersion: 2
      x: 0.51445085
      y: 0
      width: 0.07514451
      height: 1
    vert:
      serializedVersion: 2
      x: 0
      y: 0
      width: 13
      height: -17
    advance: 13
    flipped: 0
  - serializedVersion: 2
    index: 54
    uv:
      serializedVersion: 2
      x: 0.61849713
      y: 0
      width: 0.07514451
      height: 1
    vert:
      serializedVersion: 2
      x: 0
      y: 0
      width: 13
      height: -17
    advance: 13
    flipped: 0
  - serializedVersion: 2
    index: 55
    uv:
      serializedVersion: 2
      x: 0.72254336
      y: 0
      width: 0.06936416
      height: 1
    vert:
      serializedVersion: 2
      x: 0
      y: 0
      width: 12
      height: -17
    advance: 12
    flipped: 0
  - serializedVersion: 2
    index: 56
    uv:
      serializedVersion: 2
      x: 0.82080925
      y: 0
      width: 0.08092485
      height: 1
    vert:
      serializedVersion: 2
      x: 0
      y: 0
      width: 14
      height: -17
    advance: 14
    flipped: 0
  - serializedVersion: 2
    index: 57
    uv:
      serializedVersion: 2
      x: 0.9248555
      y: 0
      width: 0.07514451
      height: 1
    vert:
      serializedVersion: 2
      x: 0
      y: 0
      width: 13
      height: -17
    advance: 13
    flipped: 0
  m_Texture: {fileID: 0}
  m_KerningValues: []
  m_PixelScale: 0.1
  m_FontData: 
  m_FontSize: 0
  m_Ascent: 0
  m_DefaultStyle: 0
  m_FontNames: []
  m_FallbackFonts: []
  m_FontRenderingMode: 0
